# Final state angular momentum:   1
# Broadening parameter (in eV):    0.800
# Absorbing atom type (xiabs):   1
# Energy (eV)   sigma_tot   sigma_up    sigma_down 
  -10.00000000    0.00001279    0.00000644    0.00000635
   -9.89966555    0.00001288    0.00000649    0.00000640
   -9.79933110    0.00001298    0.00000654    0.00000645
   -9.69899666    0.00001308    0.00000659    0.00000649
   -9.59866221    0.00001318    0.00000664    0.00000655
   -9.49832776    0.00001329    0.00000669    0.00000660
   -9.39799331    0.00001339    0.00000674    0.00000665
   -9.29765886    0.00001349    0.00000679    0.00000670
   -9.19732441    0.00001360    0.00000685    0.00000675
   -9.09698997    0.00001371    0.00000690    0.00000681
   -8.99665552    0.00001382    0.00000696    0.00000686
   -8.89632107    0.00001393    0.00000701    0.00000692
   -8.79598662    0.00001404    0.00000707    0.00000698
   -8.69565217    0.00001416    0.00000712    0.00000703
   -8.59531773    0.00001427    0.00000718    0.00000709
   -8.49498328    0.00001439    0.00000724    0.00000715
   -8.39464883    0.00001451    0.00000730    0.00000721
   -8.29431438    0.00001463    0.00000736    0.00000727
   -8.19397993    0.00001476    0.00000742    0.00000733
   -8.09364548    0.00001488    0.00000749    0.00000740
   -7.99331104    0.00001501    0.00000755    0.00000746
   -7.89297659    0.00001514    0.00000761    0.00000752
   -7.79264214    0.00001527    0.00000768    0.00000759
   -7.69230769    0.00001540    0.00000774    0.00000766
   -7.59197324    0.00001554    0.00000781    0.00000773
   -7.49163880    0.00001567    0.00000788    0.00000780
   -7.39130435    0.00001581    0.00000795    0.00000787
   -7.29096990    0.00001596    0.00000802    0.00000794
   -7.19063545    0.00001610    0.00000809    0.00000801
   -7.09030100    0.00001625    0.00000816    0.00000808
   -6.98996656    0.00001640    0.00000824    0.00000816
   -6.88963211    0.00001655    0.00000831    0.00000824
   -6.78929766    0.00001670    0.00000839    0.00000832
   -6.68896321    0.00001686    0.00000847    0.00000839
   -6.58862876    0.00001702    0.00000855    0.00000848
   -6.48829431    0.00001718    0.00000863    0.00000856
   -6.38795987    0.00001735    0.00000871    0.00000864
   -6.28762542    0.00001752    0.00000879    0.00000873
   -6.18729097    0.00001769    0.00000887    0.00000882
   -6.08695652    0.00001786    0.00000896    0.00000890
   -5.98662207    0.00001804    0.00000905    0.00000900
   -5.88628763    0.00001822    0.00000914    0.00000909
   -5.78595318    0.00001841    0.00000923    0.00000918
   -5.68561873    0.00001860    0.00000932    0.00000928
   -5.58528428    0.00001879    0.00000941    0.00000938
   -5.48494983    0.00001899    0.00000951    0.00000948
   -5.38461538    0.00001919    0.00000961    0.00000958
   -5.28428094    0.00001939    0.00000970    0.00000968
   -5.18394649    0.00001960    0.00000981    0.00000979
   -5.08361204    0.00001981    0.00000991    0.00000990
   -4.98327759    0.00002003    0.00001001    0.00001001
   -4.88294314    0.00002025    0.00001012    0.00001013
   -4.78260870    0.00002047    0.00001023    0.00001025
   -4.68227425    0.00002071    0.00001034    0.00001037
   -4.58193980    0.00002094    0.00001045    0.00001049
   -4.48160535    0.00002118    0.00001057    0.00001061
   -4.38127090    0.00002143    0.00001069    0.00001074
   -4.28093645    0.00002168    0.00001081    0.00001088
   -4.18060201    0.00002194    0.00001093    0.00001101
   -4.08026756    0.00002221    0.00001106    0.00001115
   -3.97993311    0.00002248    0.00001118    0.00001129
   -3.87959866    0.00002276    0.00001131    0.00001144
   -3.77926421    0.00002304    0.00001145    0.00001159
   -3.67892977    0.00002333    0.00001158    0.00001175
   -3.57859532    0.00002364    0.00001172    0.00001191
   -3.47826087    0.00002394    0.00001187    0.00001208
   -3.37792642    0.00002426    0.00001201    0.00001225
   -3.27759197    0.00002459    0.00001216    0.00001242
   -3.17725753    0.00002492    0.00001232    0.00001261
   -3.07692308    0.00002527    0.00001247    0.00001280
   -2.97658863    0.00002562    0.00001263    0.00001299
   -2.87625418    0.00002599    0.00001280    0.00001320
   -2.77591973    0.00002637    0.00001296    0.00001341
   -2.67558528    0.00002676    0.00001314    0.00001363
   -2.57525084    0.00002717    0.00001331    0.00001385
   -2.47491639    0.00002759    0.00001349    0.00001409
   -2.37458194    0.00002802    0.00001368    0.00001434
   -2.27424749    0.00002847    0.00001387    0.00001460
   -2.17391304    0.00002894    0.00001406    0.00001488
   -2.07357860    0.00002943    0.00001426    0.00001517
   -1.97324415    0.00002994    0.00001447    0.00001547
   -1.87290970    0.00003048    0.00001468    0.00001579
   -1.77257525    0.00003104    0.00001490    0.00001614
   -1.67224080    0.00003162    0.00001512    0.00001650
   -1.57190635    0.00003224    0.00001535    0.00001689
   -1.47157191    0.00003290    0.00001559    0.00001731
   -1.37123746    0.00003359    0.00001584    0.00001776
   -1.27090301    0.00003433    0.00001609    0.00001824
   -1.17056856    0.00003512    0.00001635    0.00001877
   -1.07023411    0.00003596    0.00001661    0.00001935
   -0.96989967    0.00003687    0.00001689    0.00001998
   -0.86956522    0.00003785    0.00001717    0.00002068
   -0.76923077    0.00003892    0.00001747    0.00002145
   -0.66889632    0.00004008    0.00001777    0.00002231
   -0.56856187    0.00004135    0.00001809    0.00002327
   -0.46822742    0.00004274    0.00001841    0.00002433
   -0.36789298    0.00004425    0.00001875    0.00002550
   -0.26755853    0.00004588    0.00001910    0.00002678
   -0.16722408    0.00004762    0.00001946    0.00002816
   -0.06688963    0.00004944    0.00001983    0.00002961
    0.03344482    0.00005130    0.00002022    0.00003108
    0.13377926    0.00005310    0.00002062    0.00003247
    0.23411371    0.00005479    0.00002105    0.00003375
    0.33444816    0.00005633    0.00002148    0.00003485
    0.43478261    0.00005768    0.00002194    0.00003574
    0.53511706    0.00005884    0.00002241    0.00003643
    0.63545151    0.00005983    0.00002291    0.00003692
    0.73578595    0.00006067    0.00002343    0.00003724
    0.83612040    0.00006134    0.00002397    0.00003737
    0.93645485    0.00006186    0.00002454    0.00003732
    1.03678930    0.00006225    0.00002513    0.00003712
    1.13712375    0.00006254    0.00002576    0.00003679
    1.23745819    0.00006280    0.00002641    0.00003639
    1.33779264    0.00006309    0.00002710    0.00003599
    1.43812709    0.00006346    0.00002783    0.00003563
    1.53846154    0.00006395    0.00002860    0.00003536
    1.63879599    0.00006461    0.00002941    0.00003521
    1.73913043    0.00006545    0.00003027    0.00003519
    1.83946488    0.00006648    0.00003118    0.00003531
    1.93979933    0.00006771    0.00003214    0.00003557
    2.04013378    0.00006914    0.00003317    0.00003597
    2.14046823    0.00007077    0.00003427    0.00003650
    2.24080268    0.00007261    0.00003545    0.00003716
    2.34113712    0.00007466    0.00003671    0.00003795
    2.44147157    0.00007694    0.00003806    0.00003887
    2.54180602    0.00007945    0.00003952    0.00003993
    2.64214047    0.00008221    0.00004110    0.00004112
    2.74247492    0.00008525    0.00004280    0.00004245
    2.84280936    0.00008860    0.00004466    0.00004394
    2.94314381    0.00009228    0.00004668    0.00004560
    3.04347826    0.00009633    0.00004889    0.00004743
    3.14381271    0.00010080    0.00005133    0.00004948
    3.24414716    0.00010575    0.00005401    0.00005174
    3.34448161    0.00011125    0.00005698    0.00005427
    3.44481605    0.00011736    0.00006028    0.00005709
    3.54515050    0.00012419    0.00006396    0.00006024
    3.64548495    0.00013185    0.00006808    0.00006377
    3.74581940    0.00014046    0.00007272    0.00006774
    3.84615385    0.00015016    0.00007794    0.00007222
    3.94648829    0.00016112    0.00008384    0.00007728
    4.04682274    0.00017351    0.00009050    0.00008301
    4.14715719    0.00018748    0.00009799    0.00008949
    4.24749164    0.00020318    0.00010639    0.00009679
    4.34782609    0.00022066    0.00011569    0.00010497
    4.44816054    0.00023986    0.00012584    0.00011402
    4.54849498    0.00026051    0.00013666    0.00012386
    4.64882943    0.00028206    0.00014782    0.00013424
    4.74916388    0.00030367    0.00015888    0.00014479
    4.84949833    0.00032427    0.00016927    0.00015500
    4.94983278    0.00034281    0.00017843    0.00016438
    5.05016722    0.00035862    0.00018602    0.00017260
    5.15050167    0.00037177    0.00019205    0.00017972
    5.25083612    0.00038321    0.00019702    0.00018619
    5.35117057    0.00039452    0.00020172    0.00019280
    5.45150502    0.00040750    0.00020710    0.00020040
    5.55183946    0.00042384    0.00021404    0.00020979
    5.65217391    0.00044487    0.00022323    0.00022164
    5.75250836    0.00047147    0.00023511    0.00023635
    5.85284281    0.00050401    0.00024986    0.00025415
    5.95317726    0.00054227    0.00026736    0.00027492
    6.05351171    0.00058522    0.00028707    0.00029815
    6.15384615    0.00063087    0.00030801    0.00032286
    6.25418060    0.00067624    0.00032876    0.00034747
    6.35451505    0.00071765    0.00034763    0.00037002
    6.45484950    0.00075144    0.00036306    0.00038838
    6.55518395    0.00077483    0.00037411    0.00040072
    6.65551839    0.00078651    0.00038070    0.00040580
    6.75585284    0.00078660    0.00038347    0.00040313
    6.85618729    0.00077612    0.00038323    0.00039290
    6.95652174    0.00075641    0.00038041    0.00037600
    7.05685619    0.00072875    0.00037480    0.00035395
    7.15719064    0.00069442    0.00036572    0.00032870
    7.25752508    0.00065485    0.00035259    0.00030226
    7.35785953    0.00061177    0.00033543    0.00027634
    7.45819398    0.00056721    0.00031510    0.00025211
    7.55852843    0.00052326    0.00029301    0.00023025
    7.65886288    0.00048167    0.00027066    0.00021102
    7.75919732    0.00044367    0.00024928    0.00019439
    7.85953177    0.00040989    0.00022969    0.00018021
    7.95986622    0.00038051    0.00021229    0.00016823
    8.06020067    0.00035539    0.00019719    0.00015819
    8.16053512    0.00033419    0.00018433    0.00014986
    8.26086957    0.00031655    0.00017353    0.00014302
    8.36120401    0.00030206    0.00016458    0.00013748
    8.46153846    0.00029036    0.00015728    0.00013309
    8.56187291    0.00028114    0.00015143    0.00012971
    8.66220736    0.00027412    0.00014688    0.00012724
    8.76254181    0.00026909    0.00014349    0.00012561
    8.86287625    0.00026588    0.00014114    0.00012474
    8.96321070    0.00026436    0.00013974    0.00012461
    9.06354515    0.00026443    0.00013925    0.00012519
    9.16387960    0.00026605    0.00013960    0.00012645
    9.26421405    0.00026920    0.00014078    0.00012842
    9.36454849    0.00027388    0.00014279    0.00013109
    9.46488294    0.00028012    0.00014562    0.00013450
    9.56521739    0.00028796    0.00014930    0.00013867
    9.66555184    0.00029747    0.00015385    0.00014362
    9.76588629    0.00030867    0.00015929    0.00014937
    9.86622074    0.00032153    0.00016564    0.00015589
    9.96655518    0.00033595    0.00017287    0.00016308
   10.06688963    0.00035167    0.00018088    0.00017079
   10.16722408    0.00036829    0.00018952    0.00017877
   10.26755853    0.00038527    0.00019856    0.00018671
   10.36789298    0.00040208    0.00020772    0.00019436
   10.46822742    0.00041838    0.00021680    0.00020159
   10.56856187    0.00043426    0.00022575    0.00020851
   10.66889632    0.00045023    0.00023476    0.00021547
   10.76923077    0.00046716    0.00024422    0.00022294
   10.86956522    0.00048607    0.00025466    0.00023140
   10.96989967    0.00050797    0.00026663    0.00024134
   11.07023411    0.00053377    0.00028063    0.00025314
   11.17056856    0.00056425    0.00029710    0.00026715
   11.27090301    0.00060013    0.00031646    0.00028367
   11.37123746    0.00064208    0.00033907    0.00030301
   11.47157191    0.00069072    0.00036527    0.00032546
   11.57190635    0.00074660    0.00039533    0.00035127
   11.67224080    0.00081011    0.00042944    0.00038067
   11.77257525    0.00088141    0.00046761    0.00041380
   11.87290970    0.00096040    0.00050970    0.00045070
   11.97324415    0.00104682    0.00055544    0.00049137
   12.07357860    0.00114059    0.00060468    0.00053590
   12.17391304    0.00124229    0.00065763    0.00058467
   12.27424749    0.00135356    0.00071511    0.00063845
   12.37458194    0.00147694    0.00077851    0.00069843
   12.47491639    0.00161524    0.00084939    0.00076584
   12.57525084    0.00177039    0.00092886    0.00084153
   12.67558528    0.00194221    0.00101683    0.00092537
   12.77591973    0.00212716    0.00111138    0.00101578
   12.87625418    0.00231768    0.00120830    0.00110937
   12.97658863    0.00250227    0.00130127    0.00120100
   13.07692308    0.00266729    0.00138284    0.00128445
   13.17725753    0.00280019    0.00144649    0.00135370
   13.27759197    0.00289347    0.00148885    0.00140462
   13.37792642    0.00294702    0.00151082    0.00143621
   13.47826087    0.00296723    0.00151667    0.00145056
   13.57859532    0.00296284    0.00151149    0.00145135
   13.67892977    0.00293989    0.00149843    0.00144145
   13.77926421    0.00289856    0.00147724    0.00142132
   13.87959866    0.00283368    0.00144479    0.00138889
   13.97993311    0.00273860    0.00139723    0.00134137
   14.08026756    0.00261025    0.00133268    0.00127757
   14.18060201    0.00245222    0.00125283    0.00119939
   14.28093645    0.00227423    0.00116258    0.00111165
   14.38127090    0.00208879    0.00106837    0.00102042
   14.48160535    0.00190753    0.00097618    0.00093134
   14.58193980    0.00173903    0.00089047    0.00084856
   14.68227425    0.00158840    0.00081388    0.00077452
   14.78260870    0.00145780    0.00074754    0.00071025
   14.88294314    0.00134746    0.00069158    0.00065588
   14.98327759    0.00125645    0.00064549    0.00061097
   15.08361204    0.00118325    0.00060841    0.00057484
   15.18394649    0.00112603    0.00057930    0.00054673
   15.28428094    0.00108284    0.00055697    0.00052587
   15.38461538    0.00105159    0.00054012    0.00051146
   15.48494983    0.00103014    0.00052747    0.00050267
   15.58528428    0.00101647    0.00051789    0.00049858
   15.68561873    0.00100893    0.00051067    0.00049826
   15.78595318    0.00100656    0.00050571    0.00050085
   15.88628763    0.00100931    0.00050348    0.00050584
   15.98662207    0.00101800    0.00050479    0.00051321
   16.08695652    0.00103407    0.00051055    0.00052352
   16.18729097    0.00105922    0.00052151    0.00053770
   16.28762542    0.00109481    0.00053808    0.00055673
   16.38795987    0.00114146    0.00056018    0.00058128
   16.48829431    0.00119856    0.00058718    0.00061138
   16.58862876    0.00126380    0.00061766    0.00064613
   16.68896321    0.00133275    0.00064939    0.00068336
   16.78929766    0.00139868    0.00067918    0.00071950
   16.88963211    0.00145287    0.00070313    0.00074974
   16.98996656    0.00148597    0.00071710    0.00076887
   17.09030100    0.00149036    0.00071773    0.00077263
   17.19063545    0.00146275    0.00070358    0.00075917
   17.29096990    0.00140560    0.00067581    0.00072979
   17.39130435    0.00132618    0.00063779    0.00068838
   17.49163880    0.00123400    0.00059394    0.00064006
   17.59197324    0.00113809    0.00054845    0.00058965
   17.69230769    0.00104531    0.00050451    0.00054080
   17.79264214    0.00095997    0.00046415    0.00049582
   17.89297659    0.00088421    0.00042836    0.00045585
   17.99331104    0.00081872    0.00039746    0.00042126
   18.09364548    0.00076328    0.00037134    0.00039194
   18.19397993    0.00071723    0.00034970    0.00036753
   18.29431438    0.00067976    0.00033215    0.00034761
   18.39464883    0.00065007    0.00031831    0.00033175
   18.49498328    0.00062744    0.00030787    0.00031957
   18.59531773    0.00061130    0.00030055    0.00031075
   18.69565217    0.00060121    0.00029614    0.00030507
   18.79598662    0.00059690    0.00029454    0.00030236
   18.89632107    0.00059823    0.00029568    0.00030255
   18.99665552    0.00060522    0.00029958    0.00030564
   19.09698997    0.00061804    0.00030634    0.00031170
   19.19732441    0.00063702    0.00031613    0.00032089
   19.29765886    0.00066265    0.00032920    0.00033345
   19.39799331    0.00069558    0.00034589    0.00034970
   19.49832776    0.00073667    0.00036661    0.00037006
   19.59866221    0.00078693    0.00039188    0.00039504
   19.69899666    0.00084752    0.00042230    0.00042522
   19.79933110    0.00091968    0.00045848    0.00046120
   19.89966555    0.00100459    0.00050102    0.00050357
   20.00000000    0.00110308    0.00055037    0.00055271
